p4课下/Auto_Judger/std/mips_tb.vcd
$date
	Tue Nov 23 19:21:27 2021
$end
$version
	Icarus Verilog
$end
$timescale
	1ps
$end
$scope module mips_tb $end
$var reg 1 ! clk $end
$var reg 1 " reset $end
$scope module uut $end
$var wire 1 ! clk $end
$var wire 1 " reset $end
$var wire 32 # z [31:0] $end
$var wire 32 $ x [31:0] $end
$var wire 32 % w [31:0] $end
$var wire 32 & pcp [31:0] $end
$var wire 13 ' ops [12:0] $end
$var wire 32 ( m [31:0] $end
$var wire 32 ) instrp [31:0] $end
$var wire 3 * ifup [2:0] $end
$var wire 32 + ifum [31:0] $end
$var wire 1 , ifue $end
$var wire 32 - dmz [31:0] $end
$var wire 32 . dmx [31:0] $end
$var wire 3 / dmp [2:0] $end
$var wire 1 0 dme $end
$var wire 32 1 dmax [31:0] $end
$var wire 2 2 cmpb [1:0] $end
$var wire 6 3 az [5:0] $end
$var wire 6 4 ax [5:0] $end
$var wire 6 5 aw [5:0] $end
$var wire 6 6 am [5:0] $end
$var wire 32 7 aluz [31:0] $end
$var wire 32 8 aluy [31:0] $end
$var wire 32 9 alux [31:0] $end
$var wire 6 : alup [5:0] $end
$scope module ALU $end
$var wire 6 ; op [5:0] $end
$var wire 32 < x [31:0] $end
$var wire 32 = y [31:0] $end
$var wire 32 > z [31:0] $end
$var reg 33 ? zz [32:0] $end
$upscope $end
$scope module CTRL $end
$var wire 32 @ instr [31:0] $end
$var wire 5 A shamt [4:0] $end
$var wire 6 B rt [5:0] $end
$var wire 6 C rs [5:0] $end
$var wire 6 D rd [5:0] $end
$var wire 13 E ops [12:0] $end
$var wire 6 F func [5:0] $end
$var wire 6 G code [5:0] $end
$var wire 2 H b [1:0] $end
$var reg 6 I alup [5:0] $end
$var reg 6 J am [5:0] $end
$var reg 6 K aw [5:0] $end
$var reg 6 L ax [5:0] $end
$var reg 6 M az [5:0] $end
$var reg 1 N dme $end
$var reg 3 O dmp [2:0] $end
$var reg 3 P ifup [2:0] $end
$upscope $end
$scope module DM $end
$var wire 32 Q ax [31:0] $end
$var wire 1 ! clk $end
$var wire 1 0 en $end
$var wire 3 R op [2:0] $end
$var wire 32 S pcw [31:0] $end
$var wire 1 " rst $end
$var wire 32 T x [31:0] $end
$var wire 32 U z [31:0] $end
$var wire 5 V j [4:0] $end
$var wire 30 W i [29:0] $end
$var reg 32 X wri [31:0] $end
$var integer 32 Y p [31:0] $end
$upscope $end
$scope module GRF $end
$var wire 6 Z am [5:0] $end
$var wire 6 [ aw [5:0] $end
$var wire 6 \ ax [5:0] $end
$var wire 6 ] az [5:0] $end
$var wire 1 ! clk $end
$var wire 32 ^ instr [31:0] $end
$var wire 32 _ m [31:0] $end
$var wire 32 ` pc [31:0] $end
$var wire 32 a pcw [31:0] $end
$var wire 1 " rst $end
$var wire 32 b w [31:0] $end
$var wire 32 c wri [31:0] $end
$var wire 6 d wrp [5:0] $end
$var wire 32 e x [31:0] $end
$var wire 32 f z [31:0] $end
$var integer 32 g i [31:0] $end
$upscope $end
$scope module IFU $end
$var wire 1 ! clk $end
$var wire 1 , en $end
$var wire 32 h imm [31:0] $end
$var wire 32 i instr [31:0] $end
$var wire 3 j op [2:0] $end
$var wire 1 " rst $end
$var wire 32 k opc [31:0] $end
$var wire 32 l npc [31:0] $end
$var reg 32 m pc [31:0] $end
$upscope $end
$scope module PM $end
$var wire 224 n I [223:0] $end
$var wire 1 o clk $end
$var wire 13 p opI [12:0] $end
$var wire 1 q rst $end
$var wire 32 r rfz [31:0] $end
$var wire 32 s rfx [31:0] $end
$var wire 32 t rfw [31:0] $end
$var wire 32 u rfm [31:0] $end
$var wire 32 v pc [31:0] $end
$var wire 14 w opO [13:0] $end
$var wire 32 x instr [31:0] $end
$var wire 3 y ifup [2:0] $end
$var wire 32 z ifum [31:0] $end
$var wire 32 { dmz [31:0] $end
$var wire 32 | dmx [31:0] $end
$var wire 3 } dmp [2:0] $end
$var wire 1 ~ dme $end
$var wire 32 !" dmax [31:0] $end
$var wire 2 "" b [1:0] $end
$var wire 32 #" aluz [31:0] $end
$var wire 32 $" aluy [31:0] $end
$var wire 32 %" alux [31:0] $end
$var wire 6 &" alup [5:0] $end
$var wire 96 '" PC [95:0] $end
$var wire 192 (" O [191:0] $end
$var wire 96 )" Instr [95:0] $end
$upscope $end
$upscope $end
$upscope $end
$enddefinitions $end
#0
$dumpvars
b111111111111111000001000110000001111111111111110000010001100000011111111111111100000100011 )"
b0 ("
b110000000000000000000000000000001100000000000000000000000000000011000000000000 '"
b100 &"
b0 %"
b0 $"
b0 #"
b1 ""
b0 !"
0~
b0 }
b0 |
b0 {
b0 z
b0 y
b11111111111111100000100011 x
b10000001000000 w
b11000000000000 v
b0 u
b0 t
b0 s
b0 r
zq
b1000000 p
zo
b11111111111111100000100011000000000000000000110000000000000000000000000000000000000000000000000000000000000000000000000000000000000000000000000000000000000000000000000000000000000000000000000000000000000000000000000000 n
b11000000000000 m
b11000000000100 l
b10111111111100 k
b0 j
b11111111111111100000100011 i
b0 h
b100000 g
b0 f
b0 e
b11111 d
b0 c
b0 b
b11000000000000 a
b11000000000000 `
b0 _
b11111111111111100000100011 ^
b11111 ]
b11111 \
b11111 [
b0 Z
b1000000000000 Y
b0 X
b0 W
b0 V
b0 U
b0 T
b11000000000000 S
b0 R
b0 Q
b0 P
b0 O
0N
b11111 M
b11111 L
b11111 K
b0 J
b100 I
b1 H
b0 G
b100011 F
b1000000 E
b11111 D
b11111 C
b11111 B
b0 A
b11111111111111100000100011 @
b0 ?
b0 >
b0 =
b0 <
b100 ;
b100 :
b0 9
b0 8
b0 7
b0 6
b11111 5
b11111 4
b11111 3
b1 2
b0 1
00
b0 /
b0 .
b0 -
1,
b0 +
b0 *
b11111111111111100000100011 )
b0 (
b1000000 '
b11000000000000 &
b0 %
b0 $
b0 #
1"
0!
$end
#1000
b100000 g
b1000000000000 Y
1!
#2000
0!
#3000
b1000000000000 Y
b100000 g
1!
#4000
0!
#5000
b100000 g
b1000000000000 Y
1!
#6000
0!
#7000
b1000000000000 Y
b100000 g
1!
#8000
0!
#9000
b100000 g
b1000000000000 Y
1!
#10000
0!
0"
#11000
b1000001100 W
b1100100000110000 c
b1100100000110000 $
b1100100000110000 e
b1100100000110000 s
b1100100000110000 1
b1100100000110000 Q
b1100100000110000 !"
b1100100000110000 #"
b1100100000110000 7
b1100100000110000 >
b1100100000110000 ?
b1100100000110000 8
b1100100000110000 =
b0 2
b0 H
b0 ""
b1100100000110000000000000000000011001000001100000000000000000000000000000000000000000000000000001100100000110000 ("
b1100100000110000 $"
b110 &"
b110 :
b110 ;
b1100100000110000 t
b10000001100000 w
b1100000 '
b1100000 E
b1100000 p
b110 I
b1 3
b1 M
b1 ]
b1100100000110000 %
b1100100000110000 b
b100010 5
b100010 K
b100010 [
b10 d
b10 4
b10 L
b10 \
b1101 G
b1 C
b10 B
b11001 D
b110000 F
b110100001000101100100000110000 @
b110100001000101100100000110000 ^
b1101000010001011001000001100000011010000100010110010000011000000110100001000101100100000110000 )"
b110100001000101100100000110000 x
b11000000000100 a
b11000000000100 S
b11000000000100 `
b11000000001000 l
b110100001000101100100000110000 )
b110100001000101100100000110000 i
b110000000001000000000000000000001100000000010000000000000000000011000000000100 '"
b11000000000100 v
b11000000000000 k
b110100001000101100100000110000000000000000000000110000000001000000000000000000000000000000000000000000000000001100100000110000000000000000000000000000000000000000000000000000110010000011000000000000000000000000000000000000 n
b11000000000100 &
b11000000000100 m
1!
#12000
0!
#13000
b10100010 W
b1010001000 1
b1010001000 Q
b1010001000 !"
b1010001000 #"
b1010001000 7
b1010001000 >
b1010001000 ?
b0 c
b0 $
b0 e
b0 s
b1010001000 8
b1010001000 =
b1010001000000000000000000000000010100010000000000000000000000000000000000000000000000000000000000000000000 ("
b1010001000 $"
b1 &"
b1 :
b1 ;
b1 }
b1 /
b1 R
b1010001000 t
b1 I
b10000000010010 w
b10010 '
b10010 E
b10010 p
b1 O
b0 3
b0 M
b0 ]
b100001 5
b100001 K
b100001 [
b0 d
b0 4
b0 L
b0 \
b1010001000 %
b1010001000 b
b100011 G
b0 C
b0 B
b0 D
b1010 A
b1000 F
b10001100000000000000001010001000 @
b10001100000000000000001010001000 ^
b100011000000000000000010100010001000110000000000000000101000100010001100000000000000001010001000 )"
b10001100000000000000001010001000 x
b11000000001000 a
b11000000001000 S
b11000000001000 `
b11000000001100 l
b10001100000000000000001010001000 )
b10001100000000000000001010001000 i
b110000000010000000000000000000001100000000100000000000000000000011000000001000 '"
b11000000001000 v
b11000000000100 k
b10001100000000000000001010001000000000000000000000110000000010000000000000000000000000000000000000000000000000000000001010001000000000000000000000000000000000000000000000000000000000101000100000000000000000000000000000000000 n
b11000000001000 &
b11000000001000 m
1!
#14000
0!
#15000
b1000 V
b10010010 W
b1001001001001 1
b1001001001001 Q
b1001001001001 !"
b1001001001001 #"
b1001001001001 7
b1001001001001 >
b1001001001001 ?
b1001001001001 c
b1001001001001 $
b1001001001001 e
b1001001001001 s
b1001001001001 8
b1001001001001 =
b1001001001001000000000000000000010010010010010000000000000000000000000000000000000000000000000001001001001001 ("
b1001001001001 $"
b110 &"
b110 :
b110 ;
b0 }
b0 /
b0 R
b1001001001001 t
b110 I
b10000001100000 w
b1100000 '
b1100000 E
b1100000 p
b0 O
b11111 3
b11111 M
b11111 ]
b100010 5
b100010 K
b100010 [
b1 d
b1 4
b1 L
b1 \
b1001001001001 %
b1001001001001 b
b1101 G
b11111 C
b1 B
b10 D
b1001 A
b1001 F
b110111111000010001001001001001 @
b110111111000010001001001001001 ^
b1101111110000100010010010010010011011111100001000100100100100100110111111000010001001001001001 )"
b110111111000010001001001001001 x
b11000000001100 a
b11000000001100 S
b11000000001100 `
b11000000010000 l
b110111111000010001001001001001 )
b110111111000010001001001001001 i
b110000000011000000000000000000001100000000110000000000000000000011000000001100 '"
b11000000001100 v
b11000000001000 k
b110111111000010001001001001001000000000000000000110000000011000000000000000000000000000000000000000000000000000001001001001001000000000000000000000000000000000000000000000000000100100100100100000000000000000000000000000000 n
b11000000001100 &
b11000000001100 m
1!
#16000
0!
#17000
b0 V
b111001000 W
b11100100000 1
b11100100000 Q
b11100100000 !"
b11100100000 #"
b11100100000 7
b11100100000 >
b11100100000 ?
b0 c
b0 $
b0 e
b0 s
b11100100000 8
b11100100000 =
b11100100000000000000000000000000111001000000000000000000000000000000000000000000000000000000000000000000000 ("
b11100100000 $"
b1 &"
b1 :
b1 ;
b1 }
b1 /
b1 R
1~
10
b11100100000 t
b1 I
b1 O
b10000000010011 w
b10011 '
b10011 E
b10011 p
1N
b0 3
b0 M
b0 ]
b100001 5
b100001 K
b100001 [
b11111 6
b11111 J
b11111 Z
b0 d
b0 4
b0 L
b0 \
b11100100000 %
b11100100000 b
b101011 G
b0 C
b11111 B
b0 D
b11100 A
b100000 F
b10101100000111110000011100100000 @
b10101100000111110000011100100000 ^
b101011000001111100000111001000001010110000011111000001110010000010101100000111110000011100100000 )"
b10101100000111110000011100100000 x
b11000000010000 a
b11000000010000 S
b11000000010000 `
b11000000010100 l
b10101100000111110000011100100000 )
b10101100000111110000011100100000 i
b110000000100000000000000000000001100000001000000000000000000000011000000010000 '"
b11000000010000 v
b11000000001100 k
b10101100000111110000011100100000000000000000000000110000000100000000000000000000000000000000000000000000000000000000011100100000000000000000000000000000000000000000000000000000000001110010000000000000000000000000000000000000 n
b11000000010000 &
b11000000010000 m
1!
#18000
0!
#19000
b0 W
b1111110011111110000000000000000 1
b1111110011111110000000000000000 Q
b1111110011111110000000000000000 !"
b1111110011111110000000000000000 #"
b1111110011111110000000000000000 7
b1111110011111110000000000000000 >
b1111110011111110000000000000000 ?
b1111110011111110000000000000000 c
b1111110011111110000000000000000 $
b1111110011111110000000000000000 e
b1111110011111110000000000000000 s
b1111110011111110000000000000000 8
b1111110011111110000000000000000 =
b1111110011111110000000000000000011111100111111100000000000000000000000000000000000000000000000001111110011111110000000000000000 ("
b1111110011111110000000000000000 $"
b110 &"
b110 :
b110 ;
b0 }
b0 /
b0 R
0~
00
b1111110011111110000000000000000 t
b110 I
b0 O
b10000001100000 w
b1100000 '
b1100000 E
b1100000 p
0N
b100011 5
b100011 K
b100011 [
b0 6
b0 J
b0 Z
b11 d
b11 4
b11 L
b11 \
b1111110011111110000000000000000 %
b1111110011111110000000000000000 b
b1111 G
b11 B
b1111 D
b11001 A
b111111 F
b111100000000110111111001111111 @
b111100000000110111111001111111 ^
b1111000000001101111110011111110011110000000011011111100111111100111100000000110111111001111111 )"
b111100000000110111111001111111 x
b11000000010100 a
b11000000010100 S
b11000000010100 `
b11000000011000 l
b111100000000110111111001111111 )
b111100000000110111111001111111 i
b110000000101000000000000000000001100000001010000000000000000000011000000010100 '"
b11000000010100 v
b11000000010000 k
b111100000000110111111001111111000000000000000000110000000101000000000000000000000000000000000001111110011111110000000000000000000000000000000000000000000000000111111001111111000000000000000000000000000000000000000000000000 n
b11000000010100 &
b11000000010100 m
1!
#20000
0!
#21000
b1000 V
b1010000110 W
b11111111111111110100101000011001 c
b11111111111111110100101000011001 $
b11111111111111110100101000011001 e
b11111111111111110100101000011001 s
b11111111111111110100101000011001 1
b11111111111111110100101000011001 Q
b11111111111111110100101000011001 !"
b11111111111111110100101000011001 #"
b11111111111111110100101000011001 7
b11111111111111110100101000011001 >
b111111111111111110100101000011001 ?
b1001001001001 9
b1001001001001 <
b1001001001001 +
b1001001001001 h
b1100100000110000 8
b1100100000110000 =
b1001001001001 %"
b1001001001001 z
b10010010010010000000000000000000100100100100100000000000000001100100000110000111111111111111101001010000110010000000000000000000000000000000011111111111111110100101000011001 ("
b1100100000110000 $"
b100 &"
b100 :
b100 ;
b1001001001001 r
b1100100000110000 t
b10000001000000 w
b1000000 '
b1000000 E
b1000000 p
b100 I
b1001001001001 #
b1001001001001 f
b1 3
b1 M
b1 ]
b10 5
b10 K
b10 [
b10 d
b10 4
b10 L
b10 \
b1100100000110000 %
b1100100000110000 b
b0 G
b1 C
b10 B
b10 D
b0 A
b100011 F
b1000100001000000100011 @
b1000100001000000100011 ^
b10001000010000001000110000000000100010000100000010001100000000001000100001000000100011 )"
b1000100001000000100011 x
b11000000011000 a
b11000000011000 S
b11000000011000 `
b11000000011100 l
b1000100001000000100011 )
b1000100001000000100011 i
b110000000110000000000000000000001100000001100000000000000000000011000000011000 '"
b11000000011000 v
b11000000010100 k
b1000100001000000100011000000000000000000110000000110000000000000000000000100100100100100000000000000001100100000110000000000000000000000000000000000001111111111111111010010100001100100000000000000000000000000000000 n
b11000000011000 &
b11000000011000 m
1!
#22000
0!
#23000
b0 V
b101010101 W
b0 c
b0 $
b0 e
b0 s
b10101010100 1
b10101010100 Q
b0 9
b0 <
b0 +
b0 h
b10101010100 !"
b0 %"
b0 z
b10101010100 #"
b1 &"
b1 :
b1 ;
b1 }
b1 /
b1 R
b0 r
b10101010100 7
b10101010100 >
b1 I
b10000000010010 w
b10010 '
b10010 E
b10010 p
b1 O
b0 #
b0 f
b0 3
b0 M
b0 ]
b100001 5
b100001 K
b100001 [
b10101010100 ?
b100011 G
b0 C
b0 D
b10101 A
b10100 F
b0 2
b0 H
b0 ""
b10101010100 8
b10101010100 =
b10001100000000100000010101010100 @
b10001100000000100000010101010100 ^
b10101010100000000000000000000000101010101000000000000000000000000000000000000000000000000000000000000000000 ("
b10101010100 $"
b100011000000001000000101010101001000110000000010000001010101010010001100000000100000010101010100 )"
b10001100000000100000010101010100 x
b11000000011100 a
b11000000011100 S
b11000000011100 `
b10101010100 t
b11000000100000 l
b10001100000000100000010101010100 )
b10001100000000100000010101010100 i
b110000000111000000000000000000001100000001110000000000000000000011000000011100 '"
b11000000011100 v
b10101010100 %
b10101010100 b
b11000000011000 k
b10001100000000100000010101010100000000000000000000110000000111000000000000000000000000000000000000000000000000000000010101010100000000000000000000000000000000000000000000000000000001010101010000000000000000000000000000000000 n
b11000000011100 &
b11000000011100 m
1!
#24000
0!
#25000
b10000 V
b11010011 W
b1111110011111110110001101001110 1
b1111110011111110110001101001110 Q
b1111110011111110110001101001110 !"
b1111110011111110110001101001110 #"
b1111110011111110110001101001110 7
b1111110011111110110001101001110 >
b1111110011111110110001101001110 ?
b1111110011111110110001101001110 c
b1111110011111110110001101001110 $
b1111110011111110110001101001110 e
b1111110011111110110001101001110 s
b1111110011111110000000000000000 9
b1111110011111110000000000000000 <
b1111110011111110000000000000000 +
b1111110011111110000000000000000 h
b110001101001110 8
b110001101001110 =
b1111110011111110000000000000000 %"
b1111110011111110000000000000000 z
b11111100111111100000000000000000111111001111111000000000000000000000000000000000110001101001110011111100111111101100011010011100000000000000000000000000000000001111110011111110110001101001110 ("
b110001101001110 $"
b110 &"
b110 :
b110 ;
b0 }
b0 /
b0 R
b1111110011111110000000000000000 r
b110001101001110 t
b110 I
b10000001100000 w
b1100000 '
b1100000 E
b1100000 p
b0 O
b1111110011111110000000000000000 #
b1111110011111110000000000000000 f
b11 3
b11 M
b11 ]
b100010 5
b100010 K
b100010 [
b11 d
b11 4
b11 L
b11 \
b110001101001110 %
b110001101001110 b
b1101 G
b11 C
b11 B
b1100 D
b1101 A
b1110 F
b110100011000110110001101001110 @
b110100011000110110001101001110 ^
b1101000110001101100011010011100011010001100011011000110100111000110100011000110110001101001110 )"
b110100011000110110001101001110 x
b11000000100000 a
b11000000100000 S
b11000000100000 `
b11000000100100 l
b110100011000110110001101001110 )
b110100011000110110001101001110 i
b110000001000000000000000000000001100000010000000000000000000000011000000100000 '"
b11000000100000 v
b11000000011100 k
b110100011000110110001101001110000000000000000000110000001000000111111001111111000000000000000000000000000000000110001101001110000000000000000000000000000000000111111001111111011000110100111000000000000000000000000000000000 n
b11000000100000 &
b11000000100000 m
1!
#26000
0!
#27000
b0 V
b0 W
b0 c
b0 $
b0 e
b0 s
b0 1
b0 Q
b0 !"
b0 #"
b0 7
b0 >
b0 ?
b0 8
b0 =
b1 2
b1 H
b1 ""
b0 $"
b1001 &"
b1001 :
b1001 ;
b0 t
b10000010010000 w
b10010000 '
b10010000 E
b10010000 p
b1001 I
b0 3
b0 M
b0 ]
b100100 5
b100100 K
b100100 [
b0 d
b0 4
b0 L
b0 \
b0 %
b0 b
b0 G
b0 C
b0 B
b0 D
b0 A
b0 F
b0 9
b0 <
b0 +
b0 h
b0 @
b0 ^
b0 %"
b0 ("
b0 z
b0 )"
b0 x
b11000000100100 a
b11000000100100 S
b11000000100100 `
b0 r
b11000000101000 l
b0 )
b0 i
b110000001001000000000000000000001100000010010000000000000000000011000000100100 '"
b11000000100100 v
b0 #
b0 f
b11000000100000 k
b110000001001000000000000000000000000000000000000000000000000000000000000000000000000000000000000000000000000000000000000000000000000000000000000000000000000000000000000000000 n
b11000000100100 &
b11000000100100 m
1!
#28000
0!
#29000
b11 &"
b11 :
b11 ;
b10000000110000 w
b110000 '
b110000 E
b110000 p
b11 I
b10 3
b10 M
b10 ]
b0 5
b0 K
b0 [
b10 d
b10 4
b10 L
b10 \
b10 C
b10 D
b100001 F
b10000000001000000100001 @
b10000000001000000100001 ^
b100000000010000001000010000000001000000000100000010000100000000010000000001000000100001 )"
b10000000001000000100001 x
b11000000101000 a
b11000000101000 S
b11000000101000 `
b11000000101100 l
b10000000001000000100001 )
b10000000001000000100001 i
b110000001010000000000000000000001100000010100000000000000000000011000000101000 '"
b11000000101000 v
b11000000100100 k
b10000000001000000100001000000000000000000110000001010000000000000000000000000000000000000000000000000000000000000000000000000000000000000000000000000000000000000000000000000000000000000000000000000000000000000000000 n
b11000000101000 &
b11000000101000 m
1!
#30000
0!
#31000
b1000 V
b1111011110 W
b101111101111001 c
b101111101111001 $
b101111101111001 e
b101111101111001 s
b101111101111001 1
b101111101111001 Q
b101111101111001 !"
b101111101111001 #"
b101111101111001 7
b101111101111001 >
b101111101111001 ?
b1001001001001 9
b1001001001001 <
b1001001001001 +
b1001001001001 h
b101111101110000 8
b101111101110000 =
b1001001001001 %"
b1001001001001 z
b0 2
b0 H
b0 ""
b10010010010010000000000000000000100100100100100000000000000000101111101110000000000000000000001011111011110010000000000000000000000000000000000000000000000000101111101111001 ("
b101111101110000 $"
b110 &"
b110 :
b110 ;
b1001001001001 r
b101111101110000 t
b10000001100000 w
b1100000 '
b1100000 E
b1100000 p
b110 I
b1001001001001 #
b1001001001001 f
b1 3
b1 M
b1 ]
b101111101110000 %
b101111101110000 b
b100010 5
b100010 K
b100010 [
b1101 G
b1 C
b10 B
b1011 D
b11101 A
b110000 F
b110100001000100101111101110000 @
b110100001000100101111101110000 ^
b1101000010001001011111011100000011010000100010010111110111000000110100001000100101111101110000 )"
b110100001000100101111101110000 x
b11000000101100 a
b11000000101100 S
b11000000101100 `
b11000000110000 l
b110100001000100101111101110000 )
b110100001000100101111101110000 i
b110000001011000000000000000000001100000010110000000000000000000011000000101100 '"
b11000000101100 v
b11000000101000 k
b110100001000100101111101110000000000000000000000110000001011000000000000000000000100100100100100000000000000000101111101110000000000000000000000000000000000000000000000000000010111110111100100000000000000000000000000000000 n
b11000000101100 &
b11000000101100 m
1!
#32000
0!
#33000
b0 V
b1111110010 W
b111111001000 1
b111111001000 Q
b111111001000 !"
b111111001000 #"
b111111001000 7
b111111001000 >
b111111001000 ?
b0 c
b0 $
b0 e
b0 s
b0 9
b0 <
b0 +
b0 h
b111111001000 8
b111111001000 =
b0 %"
b0 z
b111111001000000000000000000000001111110010000000000000000000000000000000000000000000000000000000000000000000 ("
b111111001000 $"
b1 &"
b1 :
b1 ;
b1 }
b1 /
b1 R
b0 r
b111111001000 t
b1 I
b10000000010010 w
b10010 '
b10010 E
b10010 p
b1 O
b0 #
b0 f
b0 3
b0 M
b0 ]
b100001 5
b100001 K
b100001 [
b0 d
b0 4
b0 L
b0 \
b111111001000 %
b111111001000 b
b100011 G
b0 C
b0 B
b1 D
b11111 A
b1000 F
b10001100000000000000111111001000 @
b10001100000000000000111111001000 ^
b100011000000000000001111110010001000110000000000000011111100100010001100000000000000111111001000 )"
b10001100000000000000111111001000 x
b11000000110000 a
b11000000110000 S
b11000000110000 `
b11000000110100 l
b10001100000000000000111111001000 )
b10001100000000000000111111001000 i
b110000001100000000000000000000001100000011000000000000000000000011000000110000 '"
b11000000110000 v
b11000000101100 k
b10001100000000000000111111001000000000000000000000110000001100000000000000000000000000000000000000000000000000000000111111001000000000000000000000000000000000000000000000000000000011111100100000000000000000000000000000000000 n
b11000000110000 &
b11000000110000 m
1!
#34000
0!
#35000
b101111101 W
b10111110100 1
b10111110100 Q
b10111110100 !"
b10111110100 #"
b10111110100 7
b10111110100 >
b10111110100 ?
b10111110100 8
b10111110100 =
b10111110100000000000000000000000101111101000000000000000000000000000000000000000000000000000000000000000000 ("
b10111110100 $"
1~
10
b10111110100 t
b10000000010011 w
b10011 '
b10011 E
b10011 p
1N
b10111110100 %
b10111110100 b
b101011 G
b0 D
b10111 A
b110100 F
b10101100000000000000010111110100 @
b10101100000000000000010111110100 ^
b101011000000000000000101111101001010110000000000000001011111010010101100000000000000010111110100 )"
b10101100000000000000010111110100 x
b11000000110100 a
b11000000110100 S
b11000000110100 `
b11000000111000 l
b10101100000000000000010111110100 )
b10101100000000000000010111110100 i
b110000001101000000000000000000001100000011010000000000000000000011000000110100 '"
b11000000110100 v
b11000000110000 k
b10101100000000000000010111110100000000000000000000110000001101000000000000000000000000000000000000000000000000000000010111110100000000000000000000000000000000000000000000000000000001011111010000000000000000000000000000000000 n
b11000000110100 &
b11000000110100 m
1!
#36000
0!
#37000
b110100111 W
b11111100111111101100011010011100 1
b11111100111111101100011010011100 Q
b11111100111111101100011010011100 !"
b11111100111111101100011010011100 #"
b11111100111111101100011010011100 7
b11111100111111101100011010011100 >
b11111100111111101100011010011100 ?
b11111100111111101100011010011100 c
b11111100111111101100011010011100 $
b11111100111111101100011010011100 e
b11111100111111101100011010011100 s
b1111110011111110110001101001110 9
b1111110011111110110001101001110 <
b1111110011111110110001101001110 +
b1111110011111110110001101001110 h
b1111110011111110110001101001110 8
b1111110011111110110001101001110 =
b1111110011111110110001101001110 %"
b1111110011111110110001101001110 z
b11111100111111101100011010011100111111001111111011000110100111001111110011111110110001101001110111111001111111011000110100111000000000000000000000000000000000011111100111111101100011010011100 ("
b1111110011111110110001101001110 $"
b11 &"
b11 :
b11 ;
b0 }
b0 /
b0 R
0~
00
b1111110011111110110001101001110 r
b1111110011111110110001101001110 t
b11 I
b0 O
b10000000110000 w
b110000 '
b110000 E
b110000 p
0N
b1111110011111110110001101001110 #
b1111110011111110110001101001110 f
b11 3
b11 M
b11 ]
b11 5
b11 K
b11 [
b1 d
b1 4
b1 L
b1 \
b1111110011111110110001101001110 %
b1111110011111110110001101001110 b
b0 G
b11 C
b11 B
b1 D
b0 A
b100001 F
b11000110000100000100001 @
b11000110000100000100001 ^
b110001100001000001000010000000001100011000010000010000100000000011000110000100000100001 )"
b11000110000100000100001 x
b11000000111000 a
b11000000111000 S
b11000000111000 `
b11000000111100 l
b11000110000100000100001 )
b11000110000100000100001 i
b110000001110000000000000000000001100000011100000000000000000000011000000111000 '"
b11000000111000 v
b11000000110100 k
b11000110000100000100001000000000000000000110000001110000111111001111111011000110100111001111110011111110110001101001110000000000000000000000000000000001111110011111110110001101001110000000000000000000000000000000000 n
b11000000111000 &
b11000000111000 m
1!
#38000
0!
#39000
b1001011001 W
b11000000010011100101100100 c
b11000000010011100101100100 $
b11000000010011100101100100 e
b11000000010011100101100100 s
b11000000010011100101100100 1
b11000000010011100101100100 Q
b11000000010011100101100100 !"
b11000000010011100101100100 #"
b11000000010011100101100100 7
b11000000010011100101100100 >
b100000011000000010011100101100100 ?
b0 9
b0 <
b0 +
b0 h
b10 2
b10 H
b10 ""
b11111100111111101100011010011100 8
b11111100111111101100011010011100 =
b0 %"
b0 z
b11111100111111101100011010011100000000110000000100111001011001000000000000000000000000000000000000000011000000010011100101100100 ("
b11111100111111101100011010011100 $"
b100 &"
b100 :
b100 ;
b0 r
b11111100111111101100011010011100 t
b10000001000000 w
b1000000 '
b1000000 E
b1000000 p
b100 I
b0 #
b0 f
b0 3
b0 M
b0 ]
b11111100111111101100011010011100 %
b11111100111111101100011010011100 b
b1 5
b1 K
b1 [
b11 d
b11 4
b11 L
b11 \
b0 C
b1 B
b11 D
b100011 F
b10001100000100011 @
b10001100000100011 ^
b100011000001000110000000000000001000110000010001100000000000000010001100000100011 )"
b10001100000100011 x
b11000000111100 a
b11000000111100 S
b11000000111100 `
b11000001000000 l
b10001100000100011 )
b10001100000100011 i
b110000001111000000000000000000001100000011110000000000000000000011000000111100 '"
b11000000111100 v
b11000000111000 k
b10001100000100011000000000000000000110000001111000000000000000000000000000000000011111100111111101100011010011100000000000000000000000000000000000000001100000001001110010110010000000000000000000000000000000000 n
b11000000111100 &
b11000000111100 m
1!
#40000
0!
#41000
b0 W
b0 c
b0 $
b0 e
b0 s
b0 1
b0 Q
b0 !"
b0 #"
b0 7
b0 >
b0 ?
b0 8
b0 =
b1 2
b1 H
b1 ""
b0 ("
b0 $"
b11 &"
b11 :
b11 ;
b0 t
b10000000110000 w
b110000 '
b110000 E
b110000 p
b11 I
b0 %
b0 b
b0 5
b0 K
b0 [
b1 d
b1 4
b1 L
b1 \
b0 B
b1 D
b100001 F
b100000100001 @
b100000100001 ^
b1000001000010000000000000000000010000010000100000000000000000000100000100001 )"
b100000100001 x
b11000001000000 a
b11000001000000 S
b11000001000000 `
b11000001000100 l
b100000100001 )
b100000100001 i
b110000010000000000000000000000001100000100000000000000000000000011000001000000 '"
b11000001000000 v
b11000000111100 k
b100000100001000000000000000000110000010000000000000000000000000000000000000000000000000000000000000000000000000000000000000000000000000000000000000000000000000000000000000000000000000000000000000000000000 n
b11000001000000 &
b11000001000000 m
1!
#42000
0!
#43000
b1000111111 W
b100011111100 1
b100011111100 Q
b100011111100 !"
b100011111100 #"
b100011111100 7
b100011111100 >
b100011111100 ?
b100011111100 8
b100011111100 =
b0 2
b0 H
b0 ""
b100011111100000000000000000000001000111111000000000000000000000000000000000000000000000000000000000000000000 ("
b100011111100 $"
b1 &"
b1 :
b1 ;
b1 }
b1 /
b1 R
b100011111100 t
b1 I
b10000000010010 w
b10010 '
b10010 E
b10010 p
b1 O
b100011111100 %
b100011111100 b
b100001 5
b100001 K
b100001 [
b0 d
b0 4
b0 L
b0 \
b100011 G
b11 A
b111100 F
b10001100000000000000100011111100 @
b10001100000000000000100011111100 ^
b100011000000000000001000111111001000110000000000000010001111110010001100000000000000100011111100 )"
b10001100000000000000100011111100 x
b11000001000100 a
b11000001000100 S
b11000001000100 `
b11000001001000 l
b10001100000000000000100011111100 )
b10001100000000000000100011111100 i
b110000010001000000000000000000001100000100010000000000000000000011000001000100 '"
b11000001000100 v
b11000001000000 k
b10001100000000000000100011111100000000000000000000110000010001000000000000000000000000000000000000000000000000000000100011111100000000000000000000000000000000000000000000000000000010001111110000000000000000000000000000000000 n
b11000001000100 &
b11000001000100 m
1!
#44000
0!
